…
> write.csv(df_comparison, paste0(tables,"ctgan_fidelity_optimize_dataset.csv"), row.names=FALSE)
> write.csv(df_fidelity_plot, paste0(tables,"ctgan_fidelity_twoway_dataset.csv"), row.names=FALSE)
> 
> # Graph ----
> 
> df_comparison <- read.csv(paste0(tables,"ctgan_fidelity_optimize_dataset.csv"))
> df_comparison$epochs <- factor(as.character(df_comparison$epochs), levels = str_sort(unique(df_comparison$epochs), numeric = TRUE))
> 
> 
> df_comparison <- df_comparison %>%
+   filter(copies == 5) %>%
+   pivot_longer(!c(data,copies,epochs), names_to = "utility", values_to = "values")
> 
> df_comparison %>% arrange(utility,data,epochs) %>% print(n=30)
# A tibble: 32 × 5
   data                           copies epochs utility values
   <chr>                           <int> <fct>  <chr>    <dbl>
 1 sd2011                              5 100    pmse     0.198
 2 sd2011                              5 300    pmse     0.172
 3 sd2011                              5 600    pmse     0.160
 4 sd2011                              5 900    pmse     0.152
 5 sd2011_clean                        5 100    pmse     0.213
 6 sd2011_clean                        5 300    pmse     0.169
 7 sd2011_clean                        5 600    pmse     0.151
 8 sd2011_clean                        5 900    pmse     0.157
 9 sd2011_clean_small                  5 100    pmse     0.195
10 sd2011_clean_small                  5 300    pmse     0.164
11 sd2011_clean_small                  5 600    pmse     0.145
12 sd2011_clean_small                  5 900    pmse     0.133
13 sd2011_clean_small_categorical      5 100    pmse     0.197
14 sd2011_clean_small_categorical      5 300    pmse     0.169
15 sd2011_clean_small_categorical      5 600    pmse     0.160
16 sd2011_clean_small_categorical      5 900    pmse     0.156
17 sd2011                              5 100    specks   0.881
18 sd2011                              5 300    specks   0.816
19 sd2011                              5 600    specks   0.779
20 sd2011                              5 900    specks   0.757
21 sd2011_clean                        5 100    specks   0.918
22 sd2011_clean                        5 300    specks   0.809
23 sd2011_clean                        5 600    specks   0.755
24 sd2011_clean                        5 900    specks   0.771
25 sd2011_clean_small                  5 100    specks   0.874
26 sd2011_clean_small                  5 300    specks   0.794
27 sd2011_clean_small                  5 600    specks   0.739
28 sd2011_clean_small                  5 900    specks   0.706
29 sd2011_clean_small_categorical      5 100    specks   0.880
30 sd2011_clean_small_categorical      5 300    specks   0.809
# ℹ 2 more rows
…
